Decision Trees, Bagging, & Random Forests
…
--
.scrollable90[
.pull-left[

- Half our variables are numeric
- Half are categorical variables with moderate number of levels
- Likely will favor .blue[variance split rule]
- May benefit from .blue[sampling w/o replacement]

```r
ames_train %>%
  summarise_if(is.factor, n_distinct) %>% 
  gather() %>% 
  arrange(desc(value))
## # A tibble: 46 x 2
##    key          value
##    <chr>        <int>
##  1 Neighborhood    27
##  2 Exterior_1st    16
##  3 Exterior_2nd    16
##  4 MS_SubClass     15
##  5 Overall_Qual    10
##  6 Sale_Type       10
##  7 Condition_1      9
##  8 Overall_Cond     9
##  9 House_Style      8
## 10 Functional       8
## # ... with 36 more rows
```
…
```r
cor_matrix <- ames_train %>%
  mutate_if(is.factor, as.numeric) %>%
  cor()

# feature correlation
data_frame(
  row  = rownames(cor_matrix)[row(cor_matrix)[upper.tri(cor_matrix)]],
  col  = colnames(cor_matrix)[col(cor_matrix)[upper.tri(cor_matrix)]],
  corr = cor_matrix[upper.tri(cor_matrix)]
  ) %>%
  arrange(desc(abs(corr)))
## # A tibble: 3,240 x 3
##    row            col             corr
##    <chr>          <chr>          <dbl>
##  1 BsmtFin_Type_1 BsmtFin_SF_1   1    
##  2 Garage_Cars    Garage_Area    0.888
##  3 Exterior_1st   Exterior_2nd   0.856
##  4 Gr_Liv_Area    TotRms_AbvGrd  0.802
##  5 Overall_Qual   Sale_Price     0.800
##  6 Total_Bsmt_SF  First_Flr_SF   0.789
##  7 MS_SubClass    Bldg_Type      0.719
##  8 House_Style    Second_Flr_SF  0.713
##  9 BsmtFin_Type_2 BsmtFin_SF_2  -0.702
## 10 Gr_Liv_Area    Sale_Price     0.694
## # ... with 3,230 more rows

# target correlation
data_frame(
    row  = rownames(cor_matrix)[row(cor_matrix)[upper.tri(cor_matrix)]],
    col  = colnames(cor_matrix)[col(cor_matrix)[upper.tri(cor_matrix)]],
    corr = cor_matrix[upper.tri(cor_matrix)]
) %>% filter(col == "Sale_Price") %>%
    arrange(desc(abs(corr)))
## # A tibble: 78 x 3
##    row           col          corr
##    <chr>         <chr>       <dbl>
##  1 Overall_Qual  Sale_Price  0.800
##  2 Gr_Liv_Area   Sale_Price  0.694
##  3 Exter_Qual    Sale_Price -0.662
##  4 Garage_Cars   Sale_Price  0.655
##  5 Garage_Area   Sale_Price  0.652
##  6 Total_Bsmt_SF Sale_Price  0.630
##  7 Kitchen_Qual  Sale_Price -0.625
##  8 First_Flr_SF  Sale_Price  0.617
##  9 Bsmt_Qual     Sale_Price -0.575
## 10 Year_Built    Sale_Price  0.571
## # ... with 68 more rows
```
…
